%YAML 1.1
%TAG !u! tag:unity3d.com,2011:
--- !u!114 &11400000
MonoBehaviour:
  m_ObjectHideFlags: 0
  m_CorrespondingSourceObject: {fileID: 0}
  m_PrefabInstance: {fileID: 0}
  m_PrefabAsset: {fileID: 0}
  m_GameObject: {fileID: 0}
  m_Enabled: 1
  m_EditorHideFlags: 0
  m_Script: {fileID: 11500000, guid: 9e532fbc5d291de4a856fea6fe63d120, type: 3}
  m_Name: MiddleLShotgun
  m_EditorClassIdentifier: 
  <Damage>k__BackingField: 15
  <Force>k__BackingField: 80
  <AngleOffset>k__BackingField: 6.5
  inaccuracy: 3
  firePoint: {x: 0.9, y: 0}
  prefab: {fileID: 5700687323682640775, guid: 9fd863f0fb372374f9faf4cb1496af33, type: 3}
