%YAML 1.1
%TAG !u! tag:unity3d.com,2011:
--- !u!221 &22100000
AnimatorOverrideController:
  m_ObjectHideFlags: 0
  m_CorrespondingSourceObject: {fileID: 0}
  m_PrefabInstance: {fileID: 0}
  m_PrefabAsset: {fileID: 0}
  m_Name: ShotgunController
  m_Controller: {fileID: 9100000, guid: 5155f8801921c7545b060ceb1c587b58, type: 2}
  m_Clips:
  - m_OriginalClip: {fileID: 7400000, guid: 5af77af9be28e3742982a2c21f9db973, type: 2}
    m_OverrideClip: {fileID: 7400000, guid: 7e44c40da56af9643bc13ac90f2cda07, type: 2}
  - m_OriginalClip: {fileID: 7400000, guid: 44ee2a2cea088f147a2e04504359e7f4, type: 2}
    m_OverrideClip: {fileID: 7400000, guid: 6d9d3c09e1ddaed40bf9b350ebb8811e, type: 2}
  - m_OriginalClip: {fileID: 7400000, guid: a9c32687bfdaabd458f5aee61ab5ccce, type: 2}
    m_OverrideClip: {fileID: 7400000, guid: dc72d7093e38cd647a72a92cd284f2f6, type: 2}
